<svg width="17" height="10" viewBox="0 0 17 10" fill="none" xmlns="http://www.w3.org/2000/svg">
<path d="M7.85598 9.41128L0.481354 2.57887C0.125682 2.24935 0.125682 1.71512 0.481354 1.38563L1.34149 0.588745C1.69655 0.259788 2.27201 0.259155 2.62791 0.587339L8.49997 6.00214L14.372 0.587339C14.7279 0.259155 15.3033 0.259788 15.6584 0.588745L16.5185 1.38563C16.8742 1.71515 16.8742 2.24939 16.5185 2.57887L9.14395 9.41128C8.78828 9.74076 8.21165 9.74076 7.85598 9.41128Z" fill="black"/>
</svg>
