<svg width="27" height="31" viewBox="0 0 27 31" fill="none" xmlns="http://www.w3.org/2000/svg">
<g clip-path="url(#clip0_23:2316)">
<path d="M1.92857 28.0936C1.92857 28.8644 2.23335 29.6036 2.77587 30.1486C3.31839 30.6936 4.0542 30.9998 4.82143 30.9998H22.1786C22.9458 30.9998 23.6816 30.6936 24.2241 30.1486C24.7666 29.6036 25.0714 28.8644 25.0714 28.0936V7.74983H1.92857V28.0936ZM18.3214 12.5936C18.3214 12.3366 18.423 12.0902 18.6039 11.9086C18.7847 11.7269 19.03 11.6248 19.2857 11.6248C19.5415 11.6248 19.7867 11.7269 19.9676 11.9086C20.1484 12.0902 20.25 12.3366 20.25 12.5936V26.1561C20.25 26.413 20.1484 26.6594 19.9676 26.8411C19.7867 27.0228 19.5415 27.1248 19.2857 27.1248C19.03 27.1248 18.7847 27.0228 18.6039 26.8411C18.423 26.6594 18.3214 26.413 18.3214 26.1561V12.5936ZM12.5357 12.5936C12.5357 12.3366 12.6373 12.0902 12.8181 11.9086C12.999 11.7269 13.2443 11.6248 13.5 11.6248C13.7557 11.6248 14.001 11.7269 14.1819 11.9086C14.3627 12.0902 14.4643 12.3366 14.4643 12.5936V26.1561C14.4643 26.413 14.3627 26.6594 14.1819 26.8411C14.001 27.0228 13.7557 27.1248 13.5 27.1248C13.2443 27.1248 12.999 27.0228 12.8181 26.8411C12.6373 26.6594 12.5357 26.413 12.5357 26.1561V12.5936ZM6.75 12.5936C6.75 12.3366 6.85159 12.0902 7.03243 11.9086C7.21327 11.7269 7.45854 11.6248 7.71429 11.6248C7.97003 11.6248 8.2153 11.7269 8.39614 11.9086C8.57698 12.0902 8.67857 12.3366 8.67857 12.5936V26.1561C8.67857 26.413 8.57698 26.6594 8.39614 26.8411C8.2153 27.0228 7.97003 27.1248 7.71429 27.1248C7.45854 27.1248 7.21327 27.0228 7.03243 26.8411C6.85159 26.6594 6.75 26.413 6.75 26.1561V12.5936ZM26.0357 1.93733H18.8036L18.2371 0.805101C18.117 0.563043 17.9322 0.359429 17.7033 0.217166C17.4744 0.0749021 17.2105 -0.000366439 16.9413 -0.00017249H10.0527C9.78411 -0.00120969 9.52069 0.0737783 9.29258 0.2162C9.06448 0.358622 8.88092 0.562716 8.76295 0.805101L8.19643 1.93733H0.964286C0.708541 1.93733 0.463271 2.03939 0.282433 2.22107C0.101594 2.40274 0 2.64915 0 2.90608L0 4.84358C0 5.10051 0.101594 5.34691 0.282433 5.52859C0.463271 5.71026 0.708541 5.81233 0.964286 5.81233H26.0357C26.2915 5.81233 26.5367 5.71026 26.7176 5.52859C26.8984 5.34691 27 5.10051 27 4.84358V2.90608C27 2.64915 26.8984 2.40274 26.7176 2.22107C26.5367 2.03939 26.2915 1.93733 26.0357 1.93733Z" fill="#C95151"/>
</g>
<defs>
<clipPath id="clip0_23:2316">
<rect width="27" height="31" fill="white"/>
</clipPath>
</defs>
</svg>
