<svg width="40" height="46" viewBox="0 0 40 46" fill="none" xmlns="http://www.w3.org/2000/svg">
<path d="M35.7143 5.75H31.4286V1.07812C31.4286 0.485156 30.9464 0 30.3571 0H26.7857C26.1964 0 25.7143 0.485156 25.7143 1.07812V5.75H14.2857V1.07812C14.2857 0.485156 13.8036 0 13.2143 0H9.64286C9.05357 0 8.57143 0.485156 8.57143 1.07812V5.75H4.28571C1.91964 5.75 0 7.68164 0 10.0625V41.6875C0 44.0684 1.91964 46 4.28571 46H35.7143C38.0804 46 40 44.0684 40 41.6875V10.0625C40 7.68164 38.0804 5.75 35.7143 5.75ZM35.1786 41.6875H4.82143C4.52679 41.6875 4.28571 41.4449 4.28571 41.1484V14.375H35.7143V41.1484C35.7143 41.4449 35.4732 41.6875 35.1786 41.6875Z" fill="#7CBEE3"/>
</svg>
